{
  "configurations":{
    "MM":{
      "configFile":"/afs/cern.ch/user/n/nswdaq/public/felix-sw/l1ddc_config_files/MM_L1DDC_PHASE1_GBTX1_train.xml",
      "portToGBTx": 12340,
      "portFromGBTx": 12350, 
      "hosts":{
        "pcatlnswfelix06.cern.ch":{
          "LIDDC_L1P4_IPL":{
            "elinkID": "0x3e"
          },
          "LIDDC_L1P5_IPR":{
            "elinkID": "0x7e"
          },
          "LIDDC_L1P5_IPL":{
            "elinkID": "0xbe"
          },
          "LIDDC_L1P4_IPR":{
            "elinkID": "0xfe"
          },
          "LIDDC_L4P4_IPL":{
            "elinkID": "0x13e"
          },
          "LIDDC_L4P5_IPR":{
            "elinkID": "0x17e"
          },
          "LIDDC_L4P5_IPL":{
            "elinkID": "0x1be"
          },
          "LIDDC_L4P4_IPR":{
            "elinkID": "0x1fe"
          },

          "LIDDC_L1P5_HOL":{
            "elinkID": "0x23e"
          },
          "LIDDC_L1P4_HOR":{
            "elinkID": "0x27e"
          },
          "LIDDC_L1P4_HOL":{
            "elinkID": "0x2be"
          },
          "LIDDC_L1P5_HOR":{
            "elinkID": "0x2fe"
          },



          "LIDDC_L1P5_IPL":{
            "elinkID": "0xa3e",
            "portToGBTx": 12341,
            "portFromGBTx": 12351 
          },

          "LIDDC_L4P5_HOL":{
            "elinkID": "0x9be",
            "portToGBTx": 12341,
            "portFromGBTx": 12351 
          },
          "LIDDC_L4P4_HOR":{
            "elinkID": "0x9fe",
            "portToGBTx": 12341,
            "portFromGBTx": 12351
          },
          "LIDDC_L4P4_HOL":{
            "elinkID": "0xa7e",
            "portToGBTx": 12341,
            "portFromGBTx": 12351
          },
          "LIDDC_L4P5_HOR":{
            "elinkID": "0xabe",
            "portToGBTx": 12341,
            "portFromGBTx": 12351
          }
        }
      }
    }
  }
}
